<?xml version="1.0" encoding="utf-8"?>
<!-- Generator: Adobe Illustrator 23.1.0, SVG Export Plug-In . SVG Version: 6.00 Build 0)  -->
<svg version="1.1" id="Layer_1" xmlns="http://www.w3.org/2000/svg" xmlns:xlink="http://www.w3.org/1999/xlink" x="0px" y="0px"
	 viewBox="0 0 94.31 92.25" style="enable-background:new 0 0 94.31 92.25;" xml:space="preserve">
<style type="text/css">
	.st0{fill:none;stroke:#0E5EFD;stroke-width:2;stroke-miterlimit:10;}
	.st1{fill:#0E5EFD;}
</style>
<g>
	<path class="st0" d="M90.02,56.26c-0.12-0.01-0.25-0.02-0.39-0.05c-0.74-0.13-1.4-0.53-2.07-0.91c-0.17-0.1-0.37-0.24-0.54-0.25
		c-0.11-0.01-0.21,0.03-0.29,0.15c-0.19,0.25,0.05,0.57,0.16,0.84c0.21,0.48,0.46,0.94,0.64,1.42c0.53,1.45,0.27,2-0.99,2.28
		c-0.5,0.11-1.01,0.1-1.52,0.07c-0.15-0.01-0.3-0.02-0.45-0.03c-0.18-0.01-0.35-0.03-0.53-0.04l-0.06,0
		c-1.65-0.11-2.91-0.86-3.63-2.75c-0.45-1.18-1.1-2.31-2.11-3.02c-2.09-1.47-4.3-2.17-6.58-2.32c-0.6-0.04-1.21-0.04-1.82-0.01
		c-1.2,0.06-1.86,1.16-1.51,2.5c0.26,0.97,0.67,1.89,1.25,2.68c1.35,1.82,2.74,3.61,4.1,5.42c2.97,3.95,5.92,6.89,8.31,11.27
		c0.88,1.62,0.09,3.37-1.49,3.3l-36.21-0.5c-4.09-14.32-4.99-36.59,1.5-46.03c7.45-10.86,15.89-11.13,18.21-10.98
		c0.4,0.03,0.62,0.07,0.62,0.07c0.66-0.16,1.33-0.29,2.01-0.35c2.36-0.23,4.53-0.93,6.64-1.99c1.98-0.99,0.89-0.92,3.06-1.49
		c2.02-0.53,2.9-0.92,3.41-0.89c0.31,0.02,0.48,0.19,0.7,0.58c0.53,0.96-0.32,1.79-0.7,2.53c-1.53,2.9-1.33,2.69-2.08,4.2
		c-0.72,1.45-0.16,2.54,1.12,3.64c1.49,1.28,3.76,2.36,3.98,4.4c0.53,5.07,4.63,10.82,8.09,14.81c0.77,0.88,1.38,1.86,1.42,3.12
		c0.06,2.33-0.08,4.62-0.57,6.83C91.43,55.88,90.96,56.32,90.02,56.26z"/>
</g>
<g>
	<path class="st1" d="M41.15,29.22c1.23-1.79,2.57-3.41,3.98-4.81c-6.16-4.65-10.38-4.54-12.29-4.48c-0.44,0.01-0.68,0.05-0.68,0.05
		v0c-0.73-0.18-1.48-0.33-2.23-0.42c-2.62-0.31-5.03-1.08-7.37-2.19c-2.2-1.05-0.99-0.95-3.4-1.59c-2.24-0.59-3.22-1.01-3.79-0.99
		c-0.34,0.01-0.54,0.18-0.77,0.55c-0.59,0.94,0.35,1.79,0.78,2.54c1.7,2.94,1.47,2.72,2.31,4.25c0.8,1.47,0.18,2.53-1.25,3.59
		c-1.65,1.23-4.18,2.23-4.42,4.26C11.44,35,6.89,40.6,3.04,44.45c-0.85,0.85-1.54,1.8-1.57,3.06c-0.06,2.32,0.09,4.6,0.63,6.82
		c0.28,1.15,0.81,1.59,1.85,1.56c0.14,0,0.28-0.02,0.44-0.04c0.82-0.11,1.56-0.48,2.3-0.84c0.19-0.09,0.41-0.22,0.6-0.23
		c0.12,0,0.23,0.04,0.33,0.15c0.21,0.26-0.05,0.57-0.18,0.83c-0.23,0.47-0.52,0.92-0.71,1.4c-0.58,1.43-0.3,1.99,1.1,2.31
		c0.55,0.13,1.12,0.14,1.69,0.12c0.17-0.01,0.33-0.01,0.5-0.02c0.19-0.01,0.39-0.02,0.59-0.02l0.06,0c1.83-0.06,3.23-0.76,4.03-2.62
		c0.5-1.16,1.22-2.26,2.34-2.94c2.32-1.4,4.77-2.02,7.3-2.1c0.67-0.02,1.34,0,2.02,0.05c1.33,0.1,2.06,1.22,1.67,2.53
		c-0.28,0.96-0.74,1.86-1.39,2.62c-1.5,1.77-3.04,3.5-4.55,5.26c-3.29,3.84-5.58,6.94-8.23,11.22c-0.98,1.58-0.1,3.35,1.66,3.33
		l23.91,0.15C35.72,63.26,34.54,38.84,41.15,29.22z"/>
	<path class="st1" d="M54.88,76.8C54.88,76.8,54.88,76.8,54.88,76.8l-2.53,0.54l2.37-0.03C54.77,77.15,54.82,76.97,54.88,76.8
		L54.88,76.8z"/>
</g>
<path class="st1" d="M55.08,76.16c4.47-14.35,5.1-35.43-1.67-44.46c-1.49-2-3.12-3.76-4.85-5.25c-1.12,1.18-2.19,2.51-3.19,3.97
	c-6.13,8.94-5.77,31.85-1.11,46.47l11.77-0.42c0,0,0,0,0,0L55.08,76.16z"/>
</svg>
