<?xml version="1.0" encoding="utf-8"?>
<!-- Generator: Adobe Illustrator 23.1.0, SVG Export Plug-In . SVG Version: 6.00 Build 0)  -->
<svg version="1.1" id="Layer_1" xmlns="http://www.w3.org/2000/svg" xmlns:xlink="http://www.w3.org/1999/xlink" x="0px" y="0px"
	 viewBox="0 0 108 86.64" style="enable-background:new 0 0 108 86.64;" xml:space="preserve">
<style type="text/css">
	.st0{fill:#FFFFFF;}
</style>
<g>
	<path class="st0" d="M45.63,68.13c-0.45,0-0.89,0-1.34,0c-0.6-0.49-0.78-1.13-0.75-1.88c0.03-0.89-0.03-1.78,0.02-2.67
		c0.05-0.94-0.37-1.25-1.26-1.23c-1.15,0.03-2.3,0.03-3.45,0c-2.63-0.07-3.96-1.43-3.97-4.03c-0.01-2.48-0.02-4.97,0-7.45
		c0.01-0.77-0.24-1.14-1.07-1.18c-3.42-0.18-3.86-1.03-2.07-4c1.82-3.03,3.01-6.19,3.23-9.8c0.31-5.26,2.64-9.66,6.61-13.16
		c2.89-2.55,6.32-3.95,10.07-4.65c1.78,0,3.56,0,5.34,0c0.25,0.06,0.5,0.13,0.75,0.18c14.43,2.89,20.69,19.19,11.9,30.98
		c-0.4,0.53-0.6,1.07-0.6,1.74c0.02,2.26,0.01,4.52,0,6.78c-0.01,2-0.36,2.47-2.29,3.14c-0.67,0.23-1.33,0.45-2,0.68
		C58.37,63.75,52,65.94,45.63,68.13z M49.3,46.42c0.78,0.33,1.64,0.59,2.4,1.04c0.5,0.3,0.37,1,0.5,1.53
		c0.13,0.52,0.09,1.13,0.65,1.47c1.52,0.94,3.55,0.03,3.82-1.71c0.08-0.5,0.05-1.05,0.52-1.41c1.28-0.96,2.52-0.99,3.88-0.06
		c0.46,0.31,0.9,0.68,1.52,0.43c1.81-0.74,2.35-2.45,1.27-4.02c-0.97-1.4-0.03-3.61,1.67-3.98c0.6-0.13,1.35-0.02,1.74-0.6
		c0.59-0.9,0.35-1.95,0.22-2.92c-0.11-0.81-0.9-0.85-1.57-0.97c-2.24-0.39-3.13-2.52-1.84-4.38c0.31-0.45,0.81-0.91,0.58-1.49
		c-0.4-0.99-1.23-1.68-2.1-2.21c-0.65-0.4-1.14,0.29-1.67,0.59c-0.47,0.27-0.82,0.8-1.45,0.72c-1.52-0.19-2.67-1.18-2.86-2.66
		c-0.15-1.18-0.72-1.62-1.85-1.51c-0.26,0.03-0.52,0.03-0.78,0c-1.14-0.12-1.73,0.36-1.82,1.53c-0.05,0.57-0.02,1.22-0.53,1.64
		c-1.19,1-2.76,1.04-4.07,0.15c-0.42-0.28-0.8-0.69-1.4-0.46c-1.82,0.7-2.42,2.53-1.34,4.08c1.01,1.45,0.02,3.75-1.74,4.01
		c-0.58,0.09-1.33,0.01-1.61,0.57c-0.48,0.95-0.31,2.04-0.13,3.05c0.15,0.85,1.03,0.7,1.65,0.86c0.52,0.14,1.13,0.05,1.51,0.56
		c1.02,1.38,1.07,2.59,0.03,3.96c-0.66,0.87-0.58,1.53,0.22,2.19c0.23,0.19,0.44,0.4,0.63,0.63c0.73,0.89,1.51,0.93,2.4,0.22
		C48.19,46.96,48.62,46.53,49.3,46.42z"/>
	<path class="st0" d="M59.95,37.39c0,3.05-2.42,5.52-5.47,5.57c-3.06,0.05-5.59-2.47-5.6-5.56c0-3.04,2.44-5.53,5.47-5.57
		C57.42,31.78,59.94,34.29,59.95,37.39z"/>
</g>
</svg>
