<?xml version="1.0" encoding="utf-8"?>
<!-- Generator: Adobe Illustrator 23.1.0, SVG Export Plug-In . SVG Version: 6.00 Build 0)  -->
<svg version="1.1" id="Layer_1" xmlns="http://www.w3.org/2000/svg" xmlns:xlink="http://www.w3.org/1999/xlink" x="0px" y="0px"
	 viewBox="0 0 161 161.16" style="enable-background:new 0 0 161 161.16;" xml:space="preserve">
<style type="text/css">
	.st0{fill:#FFFFFF;}
</style>
<g>
	<path class="st0" d="M118.43,71.19c-0.11,5.21-1.97,12.65-6.6,19.23c-0.96,1.37-1.02,2.34,0.46,3.27c0.47,0.29,0.84,0.73,1.23,1.14
		c1.45,1.5,2.76,2.85,5.3,2.68c2.33-0.16,4.37,1.28,6.03,3.02c3.48,3.64,6.96,7.28,10.45,10.91c1.75,1.81,3.61,3.52,5.3,5.39
		c4.79,5.31,2.12,14.01-4.76,15.53c-2.51,0.55-4.88,0.1-6.85-1.71c-5.94-5.45-11.49-11.28-17.16-17c-1.87-1.89-2.97-4.28-2.79-7.03
		c0.1-1.59-0.5-2.71-1.73-3.57c-1.38-0.96-2.21-2.93-3.81-3.14c-1.53-0.21-2.75,1.46-4.13,2.26c-4.67,2.69-9.77,4.28-14.99,5.19
		c-8.08,1.4-15.62-1.05-22.56-4.84c-12.38-6.75-19.01-17.53-20.07-31.51c-1.13-14.88,4.56-26.75,16.82-35.35
		c12.87-9.02,26.58-9.23,39.78-1.76C110.16,40.58,118.35,51.27,118.43,71.19z M49.8,67.79c-0.17,7.27,1.96,13.45,5.86,19.06
		c0.42,0.61,0.82,1.69,1.94,1.11c4.71-2.45,9.85-3.52,14.93-4.86c4.52-1.2,9.07-1.44,13.47-0.35c5.34,1.32,10.8,2.39,15.82,4.84
		c1.22,0.6,2.05,0.22,2.88-0.82c1.68-2.12,2.74-4.55,3.68-7.04c3.93-10.45,2.88-20.46-3.52-29.56C97.16,39.26,83.3,34.93,70.7,39.01
		C58.08,43.08,49.88,54.53,49.8,67.79z"/>
	<path class="st0" d="M80.48,125.09c-9.25,0-18.5-0.05-27.74,0.04c-2.04,0.02-2.68-0.67-2.62-2.66c0.12-4.13,0.03-8.26,0.05-12.39
		c0.01-2.01,0.48-3.87,1.79-5.47c1-1.23,1.95-1.57,3.36-0.48c5,3.89,10.61,6.46,16.88,7.57c9.33,1.66,18.26,0.43,26.84-3.55
		c0.92-0.42,1.57-1.16,2.37-1.71c1.38-0.93,2.46-0.62,2.58,0.96c0.35,4.65,2.65,8.16,5.97,11.19c0.9,0.83,1.31,4.77,0.73,5.8
		c-0.58,1.03-1.61,0.69-2.46,0.69C98.97,125.1,89.72,125.09,80.48,125.09z"/>
	<path class="st0" d="M28.28,101.14c-5.39,0-10.78-0.05-16.17,0.03c-1.69,0.02-2.39-0.51-2.35-2.28c0.09-4.34,0.03-8.68,0.04-13.01
		c0.01-3.3,1.48-5.67,4.32-7.39c6.35-3.84,13.03-6.7,20.44-7.82c2.3-0.35,2.51,0.72,2.7,2.5c0.92,8.71,4.05,16.52,9.78,23.23
		c0.6,0.7,1.88,1.31,1.27,2.38c-0.71,1.23-1.67,2.39-3.44,2.37c-4.55-0.05-9.1-0.01-13.65-0.01
		C30.24,101.14,29.26,101.14,28.28,101.14z"/>
	<path class="st0" d="M141.12,101.14c-0.21,0-0.42-0.02-0.63,0c-5.28,0.57-9.96-0.06-13.54-4.81c-1.77-2.35-4.83-3.2-7.83-3.63
		c-2.01-0.29-2.35-1.03-1.34-2.84c2.94-5.27,4.6-10.94,5.17-16.93c0.17-1.78,0.66-2.57,2.72-2.27c7.79,1.15,15.13,3.33,21.62,8
		c2.61,1.88,3.95,4.23,3.93,7.42c-0.03,4.27-0.07,8.54,0.02,12.8c0.04,1.77-0.67,2.33-2.36,2.27
		C146.3,101.07,143.71,101.14,141.12,101.14z"/>
	<path class="st0" d="M136.09,50.75c-0.03,6.81-4.32,13.08-10.22,14.92c-2.33,0.73-2.71,0.48-2.91-1.91
		c-0.75-8.85-3.97-16.68-9.71-23.46c-1.46-1.73-1.36-2.17,0.73-3.21C124.08,32.02,136.13,39.47,136.09,50.75z"/>
	<path class="st0" d="M24.92,50.46c0.14-11.09,12.2-18.42,21.92-13.37c1.48,0.77,1.8,1.35,0.59,2.76
		c-5.91,6.87-9.44,14.78-10.21,23.87c-0.19,2.27-0.47,2.45-2.57,1.71C28.76,63.37,24.83,57.31,24.92,50.46z"/>
	<path class="st0" d="M62.77,61.46c0.03-9.72,7.48-17.27,17.05-17.29c9.6-0.02,17.17,7.7,17.14,17.48
		c-0.03,9.38-7.78,17.16-17.09,17.16C70.44,78.81,62.74,71,62.77,61.46z"/>
</g>
</svg>
